[gd_scene load_steps=3 format=2]

[ext_resource path="res://Assets/button.png" type="Texture" id=1]

[sub_resource type="CircleShape2D" id=1]
radius = 25.3639

[node name="Node2D" type="Node2D"]

[node name="Area2D" type="Area2D" parent="."]

[node name="CollisionShape2D" type="CollisionShape2D" parent="Area2D"]
shape = SubResource( 1 )

[node name="Sprite" type="Sprite" parent="Area2D"]
texture = ExtResource( 1 )
